^C:\USERS\SERGI\DESKTOP\ENTI\2º QUATRI\INFORMATICA GRAFICA\PRACTICAS\AA2_PRACTICA\CODE\INCLUDE\IMGUI\IMGUI.CPP
/c /I.\INCLUDE /I.\INCLUDE\SDL2 /ZI /nologo /W3 /WX- /diagnostics:classic /sdl /Od /D _MBCS /Gm /EHsc /RTC1 /MDd /GS /fp:precise /Zc:wchar_t /Zc:forScope /Zc:inline /Fo"C:\USERS\SERGI\DESKTOP\ENTI\2º QUATRI\INFORMATICA GRAFICA\PRACTICAS\AA2_PRACTICA\X64\DEBUG\INT\\" /Fd"C:\USERS\SERGI\DESKTOP\ENTI\2º QUATRI\INFORMATICA GRAFICA\PRACTICAS\AA2_PRACTICA\X64\DEBUG\INT\VC141.PDB" /Gd /TP C:\USERS\SERGI\DESKTOP\ENTI\2º QUATRI\INFORMATICA GRAFICA\PRACTICAS\AA2_PRACTICA\CODE\INCLUDE\IMGUI\IMGUI.CPP
^C:\USERS\SERGI\DESKTOP\ENTI\2º QUATRI\INFORMATICA GRAFICA\PRACTICAS\AA2_PRACTICA\CODE\INCLUDE\IMGUI\IMGUI_DEMO.CPP
/c /I.\INCLUDE /I.\INCLUDE\SDL2 /ZI /nologo /W3 /WX- /diagnostics:classic /sdl /Od /D _MBCS /Gm /EHsc /RTC1 /MDd /GS /fp:precise /Zc:wchar_t /Zc:forScope /Zc:inline /Fo"C:\USERS\SERGI\DESKTOP\ENTI\2º QUATRI\INFORMATICA GRAFICA\PRACTICAS\AA2_PRACTICA\X64\DEBUG\INT\\" /Fd"C:\USERS\SERGI\DESKTOP\ENTI\2º QUATRI\INFORMATICA GRAFICA\PRACTICAS\AA2_PRACTICA\X64\DEBUG\INT\VC141.PDB" /Gd /TP C:\USERS\SERGI\DESKTOP\ENTI\2º QUATRI\INFORMATICA GRAFICA\PRACTICAS\AA2_PRACTICA\CODE\INCLUDE\IMGUI\IMGUI_DEMO.CPP
^C:\USERS\SERGI\DESKTOP\ENTI\2º QUATRI\INFORMATICA GRAFICA\PRACTICAS\AA2_PRACTICA\CODE\INCLUDE\IMGUI\IMGUI_DRAW.CPP
/c /I.\INCLUDE /I.\INCLUDE\SDL2 /ZI /nologo /W3 /WX- /diagnostics:classic /sdl /Od /D _MBCS /Gm /EHsc /RTC1 /MDd /GS /fp:precise /Zc:wchar_t /Zc:forScope /Zc:inline /Fo"C:\USERS\SERGI\DESKTOP\ENTI\2º QUATRI\INFORMATICA GRAFICA\PRACTICAS\AA2_PRACTICA\X64\DEBUG\INT\\" /Fd"C:\USERS\SERGI\DESKTOP\ENTI\2º QUATRI\INFORMATICA GRAFICA\PRACTICAS\AA2_PRACTICA\X64\DEBUG\INT\VC141.PDB" /Gd /TP C:\USERS\SERGI\DESKTOP\ENTI\2º QUATRI\INFORMATICA GRAFICA\PRACTICAS\AA2_PRACTICA\CODE\INCLUDE\IMGUI\IMGUI_DRAW.CPP
^C:\USERS\SERGI\DESKTOP\ENTI\2º QUATRI\INFORMATICA GRAFICA\PRACTICAS\AA2_PRACTICA\CODE\INCLUDE\IMGUI\IMGUI_IMPL_SDL_GL3.CPP
/c /I.\INCLUDE /I.\INCLUDE\SDL2 /ZI /nologo /W3 /WX- /diagnostics:classic /sdl /Od /D _MBCS /Gm /EHsc /RTC1 /MDd /GS /fp:precise /Zc:wchar_t /Zc:forScope /Zc:inline /Fo"C:\USERS\SERGI\DESKTOP\ENTI\2º QUATRI\INFORMATICA GRAFICA\PRACTICAS\AA2_PRACTICA\X64\DEBUG\INT\\" /Fd"C:\USERS\SERGI\DESKTOP\ENTI\2º QUATRI\INFORMATICA GRAFICA\PRACTICAS\AA2_PRACTICA\X64\DEBUG\INT\VC141.PDB" /Gd /TP C:\USERS\SERGI\DESKTOP\ENTI\2º QUATRI\INFORMATICA GRAFICA\PRACTICAS\AA2_PRACTICA\CODE\INCLUDE\IMGUI\IMGUI_IMPL_SDL_GL3.CPP
^C:\USERS\SERGI\DESKTOP\ENTI\2º QUATRI\INFORMATICA GRAFICA\PRACTICAS\AA2_PRACTICA\CODE\MY_RENDER_CODE.CPP
/c /I.\INCLUDE /I.\INCLUDE\SDL2 /ZI /nologo /W3 /WX- /diagnostics:classic /sdl /Od /D _MBCS /Gm /EHsc /RTC1 /MDd /GS /fp:precise /Zc:wchar_t /Zc:forScope /Zc:inline /Fo"C:\USERS\SERGI\DESKTOP\ENTI\2º QUATRI\INFORMATICA GRAFICA\PRACTICAS\AA2_PRACTICA\X64\DEBUG\INT\\" /Fd"C:\USERS\SERGI\DESKTOP\ENTI\2º QUATRI\INFORMATICA GRAFICA\PRACTICAS\AA2_PRACTICA\X64\DEBUG\INT\VC141.PDB" /Gd /TP C:\USERS\SERGI\DESKTOP\ENTI\2º QUATRI\INFORMATICA GRAFICA\PRACTICAS\AA2_PRACTICA\CODE\MY_RENDER_CODE.CPP
^C:\USERS\SERGI\DESKTOP\ENTI\2º QUATRI\INFORMATICA GRAFICA\PRACTICAS\AA2_PRACTICA\CODE\SRC\MAIN.CPP
/c /I.\INCLUDE /I.\INCLUDE\SDL2 /ZI /nologo /W3 /WX- /diagnostics:classic /sdl /Od /D _MBCS /Gm /EHsc /RTC1 /MDd /GS /fp:precise /Zc:wchar_t /Zc:forScope /Zc:inline /Fo"C:\USERS\SERGI\DESKTOP\ENTI\2º QUATRI\INFORMATICA GRAFICA\PRACTICAS\AA2_PRACTICA\X64\DEBUG\INT\\" /Fd"C:\USERS\SERGI\DESKTOP\ENTI\2º QUATRI\INFORMATICA GRAFICA\PRACTICAS\AA2_PRACTICA\X64\DEBUG\INT\VC141.PDB" /Gd /TP C:\USERS\SERGI\DESKTOP\ENTI\2º QUATRI\INFORMATICA GRAFICA\PRACTICAS\AA2_PRACTICA\CODE\SRC\MAIN.CPP
^C:\USERS\SERGI\DESKTOP\ENTI\2º QUATRI\INFORMATICA GRAFICA\PRACTICAS\AA2_PRACTICA\CODE\SRC\PHYSICS.CPP
/c /I.\INCLUDE /I.\INCLUDE\SDL2 /ZI /nologo /W3 /WX- /diagnostics:classic /sdl /Od /D _MBCS /Gm /EHsc /RTC1 /MDd /GS /fp:precise /Zc:wchar_t /Zc:forScope /Zc:inline /Fo"C:\USERS\SERGI\DESKTOP\ENTI\2º QUATRI\INFORMATICA GRAFICA\PRACTICAS\AA2_PRACTICA\X64\DEBUG\INT\\" /Fd"C:\USERS\SERGI\DESKTOP\ENTI\2º QUATRI\INFORMATICA GRAFICA\PRACTICAS\AA2_PRACTICA\X64\DEBUG\INT\VC141.PDB" /Gd /TP C:\USERS\SERGI\DESKTOP\ENTI\2º QUATRI\INFORMATICA GRAFICA\PRACTICAS\AA2_PRACTICA\CODE\SRC\PHYSICS.CPP
^C:\USERS\SERGI\DESKTOP\ENTI\2º QUATRI\INFORMATICA GRAFICA\PRACTICAS\AA2_PRACTICA\CODE\SRC\RENDER.CPP
/c /I.\INCLUDE /I.\INCLUDE\SDL2 /ZI /nologo /W3 /WX- /diagnostics:classic /sdl /Od /D _MBCS /Gm /EHsc /RTC1 /MDd /GS /fp:precise /Zc:wchar_t /Zc:forScope /Zc:inline /Fo"C:\USERS\SERGI\DESKTOP\ENTI\2º QUATRI\INFORMATICA GRAFICA\PRACTICAS\AA2_PRACTICA\X64\DEBUG\INT\\" /Fd"C:\USERS\SERGI\DESKTOP\ENTI\2º QUATRI\INFORMATICA GRAFICA\PRACTICAS\AA2_PRACTICA\X64\DEBUG\INT\VC141.PDB" /Gd /TP C:\USERS\SERGI\DESKTOP\ENTI\2º QUATRI\INFORMATICA GRAFICA\PRACTICAS\AA2_PRACTICA\CODE\SRC\RENDER.CPP
^C:\USERS\SERGI\DESKTOP\ENTI\2º QUATRI\INFORMATICA GRAFICA\PRACTICAS\AA2_PRACTICA\CODE\SRC\RENDER_PRIMS.CPP
/c /I.\INCLUDE /I.\INCLUDE\SDL2 /ZI /nologo /W3 /WX- /diagnostics:classic /sdl /Od /D _MBCS /Gm /EHsc /RTC1 /MDd /GS /fp:precise /Zc:wchar_t /Zc:forScope /Zc:inline /Fo"C:\USERS\SERGI\DESKTOP\ENTI\2º QUATRI\INFORMATICA GRAFICA\PRACTICAS\AA2_PRACTICA\X64\DEBUG\INT\\" /Fd"C:\USERS\SERGI\DESKTOP\ENTI\2º QUATRI\INFORMATICA GRAFICA\PRACTICAS\AA2_PRACTICA\X64\DEBUG\INT\VC141.PDB" /Gd /TP C:\USERS\SERGI\DESKTOP\ENTI\2º QUATRI\INFORMATICA GRAFICA\PRACTICAS\AA2_PRACTICA\CODE\SRC\RENDER_PRIMS.CPP
^C:\USERS\ACALVO\DOCUMENTS\AA2_PRACTICA\AA2_PRACTICA\CODE\INCLUDE\IMGUI\IMGUI.CPP
/c /I.\INCLUDE /I.\INCLUDE\SDL2 /ZI /nologo /W3 /WX- /diagnostics:classic /sdl /Od /D _MBCS /Gm /EHsc /RTC1 /MDd /GS /fp:precise /Zc:wchar_t /Zc:forScope /Zc:inline /Fo"C:\USERS\ACALVO\DOCUMENTS\AA2_PRACTICA\AA2_PRACTICA\X64\DEBUG\INT\\" /Fd"C:\USERS\ACALVO\DOCUMENTS\AA2_PRACTICA\AA2_PRACTICA\X64\DEBUG\INT\VC141.PDB" /Gd /TP C:\USERS\ACALVO\DOCUMENTS\AA2_PRACTICA\AA2_PRACTICA\CODE\INCLUDE\IMGUI\IMGUI.CPP
^C:\USERS\ACALVO\DOCUMENTS\AA2_PRACTICA\AA2_PRACTICA\CODE\INCLUDE\IMGUI\IMGUI_DEMO.CPP
/c /I.\INCLUDE /I.\INCLUDE\SDL2 /ZI /nologo /W3 /WX- /diagnostics:classic /sdl /Od /D _MBCS /Gm /EHsc /RTC1 /MDd /GS /fp:precise /Zc:wchar_t /Zc:forScope /Zc:inline /Fo"C:\USERS\ACALVO\DOCUMENTS\AA2_PRACTICA\AA2_PRACTICA\X64\DEBUG\INT\\" /Fd"C:\USERS\ACALVO\DOCUMENTS\AA2_PRACTICA\AA2_PRACTICA\X64\DEBUG\INT\VC141.PDB" /Gd /TP C:\USERS\ACALVO\DOCUMENTS\AA2_PRACTICA\AA2_PRACTICA\CODE\INCLUDE\IMGUI\IMGUI_DEMO.CPP
^C:\USERS\ACALVO\DOCUMENTS\AA2_PRACTICA\AA2_PRACTICA\CODE\INCLUDE\IMGUI\IMGUI_DRAW.CPP
/c /I.\INCLUDE /I.\INCLUDE\SDL2 /ZI /nologo /W3 /WX- /diagnostics:classic /sdl /Od /D _MBCS /Gm /EHsc /RTC1 /MDd /GS /fp:precise /Zc:wchar_t /Zc:forScope /Zc:inline /Fo"C:\USERS\ACALVO\DOCUMENTS\AA2_PRACTICA\AA2_PRACTICA\X64\DEBUG\INT\\" /Fd"C:\USERS\ACALVO\DOCUMENTS\AA2_PRACTICA\AA2_PRACTICA\X64\DEBUG\INT\VC141.PDB" /Gd /TP C:\USERS\ACALVO\DOCUMENTS\AA2_PRACTICA\AA2_PRACTICA\CODE\INCLUDE\IMGUI\IMGUI_DRAW.CPP
^C:\USERS\ACALVO\DOCUMENTS\AA2_PRACTICA\AA2_PRACTICA\CODE\INCLUDE\IMGUI\IMGUI_IMPL_SDL_GL3.CPP
/c /I.\INCLUDE /I.\INCLUDE\SDL2 /ZI /nologo /W3 /WX- /diagnostics:classic /sdl /Od /D _MBCS /Gm /EHsc /RTC1 /MDd /GS /fp:precise /Zc:wchar_t /Zc:forScope /Zc:inline /Fo"C:\USERS\ACALVO\DOCUMENTS\AA2_PRACTICA\AA2_PRACTICA\X64\DEBUG\INT\\" /Fd"C:\USERS\ACALVO\DOCUMENTS\AA2_PRACTICA\AA2_PRACTICA\X64\DEBUG\INT\VC141.PDB" /Gd /TP C:\USERS\ACALVO\DOCUMENTS\AA2_PRACTICA\AA2_PRACTICA\CODE\INCLUDE\IMGUI\IMGUI_IMPL_SDL_GL3.CPP
^C:\USERS\ACALVO\DOCUMENTS\AA2_PRACTICA\AA2_PRACTICA\CODE\MY_RENDER_CODE.CPP
/c /I.\INCLUDE /I.\INCLUDE\SDL2 /ZI /nologo /W3 /WX- /diagnostics:classic /sdl /Od /D _MBCS /Gm /EHsc /RTC1 /MDd /GS /fp:precise /Zc:wchar_t /Zc:forScope /Zc:inline /Fo"C:\USERS\ACALVO\DOCUMENTS\AA2_PRACTICA\AA2_PRACTICA\X64\DEBUG\INT\\" /Fd"C:\USERS\ACALVO\DOCUMENTS\AA2_PRACTICA\AA2_PRACTICA\X64\DEBUG\INT\VC141.PDB" /Gd /TP C:\USERS\ACALVO\DOCUMENTS\AA2_PRACTICA\AA2_PRACTICA\CODE\MY_RENDER_CODE.CPP
^C:\USERS\ACALVO\DOCUMENTS\AA2_PRACTICA\AA2_PRACTICA\CODE\SRC\MAIN.CPP
/c /I.\INCLUDE /I.\INCLUDE\SDL2 /ZI /nologo /W3 /WX- /diagnostics:classic /sdl /Od /D _MBCS /Gm /EHsc /RTC1 /MDd /GS /fp:precise /Zc:wchar_t /Zc:forScope /Zc:inline /Fo"C:\USERS\ACALVO\DOCUMENTS\AA2_PRACTICA\AA2_PRACTICA\X64\DEBUG\INT\\" /Fd"C:\USERS\ACALVO\DOCUMENTS\AA2_PRACTICA\AA2_PRACTICA\X64\DEBUG\INT\VC141.PDB" /Gd /TP C:\USERS\ACALVO\DOCUMENTS\AA2_PRACTICA\AA2_PRACTICA\CODE\SRC\MAIN.CPP
^C:\USERS\ACALVO\DOCUMENTS\AA2_PRACTICA\AA2_PRACTICA\CODE\SRC\PHYSICS.CPP
/c /I.\INCLUDE /I.\INCLUDE\SDL2 /ZI /nologo /W3 /WX- /diagnostics:classic /sdl /Od /D _MBCS /Gm /EHsc /RTC1 /MDd /GS /fp:precise /Zc:wchar_t /Zc:forScope /Zc:inline /Fo"C:\USERS\ACALVO\DOCUMENTS\AA2_PRACTICA\AA2_PRACTICA\X64\DEBUG\INT\\" /Fd"C:\USERS\ACALVO\DOCUMENTS\AA2_PRACTICA\AA2_PRACTICA\X64\DEBUG\INT\VC141.PDB" /Gd /TP C:\USERS\ACALVO\DOCUMENTS\AA2_PRACTICA\AA2_PRACTICA\CODE\SRC\PHYSICS.CPP
^C:\USERS\ACALVO\DOCUMENTS\AA2_PRACTICA\AA2_PRACTICA\CODE\SRC\RENDER.CPP
/c /I.\INCLUDE /I.\INCLUDE\SDL2 /ZI /nologo /W3 /WX- /diagnostics:classic /sdl /Od /D _MBCS /Gm /EHsc /RTC1 /MDd /GS /fp:precise /Zc:wchar_t /Zc:forScope /Zc:inline /Fo"C:\USERS\ACALVO\DOCUMENTS\AA2_PRACTICA\AA2_PRACTICA\X64\DEBUG\INT\\" /Fd"C:\USERS\ACALVO\DOCUMENTS\AA2_PRACTICA\AA2_PRACTICA\X64\DEBUG\INT\VC141.PDB" /Gd /TP C:\USERS\ACALVO\DOCUMENTS\AA2_PRACTICA\AA2_PRACTICA\CODE\SRC\RENDER.CPP
^C:\USERS\ACALVO\DOCUMENTS\AA2_PRACTICA\AA2_PRACTICA\CODE\SRC\RENDER_PRIMS.CPP
/c /I.\INCLUDE /I.\INCLUDE\SDL2 /ZI /nologo /W3 /WX- /diagnostics:classic /sdl /Od /D _MBCS /Gm /EHsc /RTC1 /MDd /GS /fp:precise /Zc:wchar_t /Zc:forScope /Zc:inline /Fo"C:\USERS\ACALVO\DOCUMENTS\AA2_PRACTICA\AA2_PRACTICA\X64\DEBUG\INT\\" /Fd"C:\USERS\ACALVO\DOCUMENTS\AA2_PRACTICA\AA2_PRACTICA\X64\DEBUG\INT\VC141.PDB" /Gd /TP C:\USERS\ACALVO\DOCUMENTS\AA2_PRACTICA\AA2_PRACTICA\CODE\SRC\RENDER_PRIMS.CPP
^C:\USERS\SERGI\DESKTOP\ENTI\2º QUATRI\INFORMATICA GRAFICA\5.PRACTICA2 REPOSITORI\AA2_PRACTICA\CODE\INCLUDE\IMGUI\IMGUI.CPP
/c /I.\INCLUDE /I.\INCLUDE\SDL2 /ZI /nologo /W3 /WX- /diagnostics:classic /sdl /Od /D _MBCS /Gm /EHsc /RTC1 /MDd /GS /fp:precise /Zc:wchar_t /Zc:forScope /Zc:inline /Fo"C:\USERS\SERGI\DESKTOP\ENTI\2º QUATRI\INFORMATICA GRAFICA\5.PRACTICA2 REPOSITORI\AA2_PRACTICA\X64\DEBUG\INT\\" /Fd"C:\USERS\SERGI\DESKTOP\ENTI\2º QUATRI\INFORMATICA GRAFICA\5.PRACTICA2 REPOSITORI\AA2_PRACTICA\X64\DEBUG\INT\VC141.PDB" /Gd /TP C:\USERS\SERGI\DESKTOP\ENTI\2º QUATRI\INFORMATICA GRAFICA\5.PRACTICA2 REPOSITORI\AA2_PRACTICA\CODE\INCLUDE\IMGUI\IMGUI.CPP
^C:\USERS\SERGI\DESKTOP\ENTI\2º QUATRI\INFORMATICA GRAFICA\5.PRACTICA2 REPOSITORI\AA2_PRACTICA\CODE\INCLUDE\IMGUI\IMGUI_DEMO.CPP
/c /I.\INCLUDE /I.\INCLUDE\SDL2 /ZI /nologo /W3 /WX- /diagnostics:classic /sdl /Od /D _MBCS /Gm /EHsc /RTC1 /MDd /GS /fp:precise /Zc:wchar_t /Zc:forScope /Zc:inline /Fo"C:\USERS\SERGI\DESKTOP\ENTI\2º QUATRI\INFORMATICA GRAFICA\5.PRACTICA2 REPOSITORI\AA2_PRACTICA\X64\DEBUG\INT\\" /Fd"C:\USERS\SERGI\DESKTOP\ENTI\2º QUATRI\INFORMATICA GRAFICA\5.PRACTICA2 REPOSITORI\AA2_PRACTICA\X64\DEBUG\INT\VC141.PDB" /Gd /TP C:\USERS\SERGI\DESKTOP\ENTI\2º QUATRI\INFORMATICA GRAFICA\5.PRACTICA2 REPOSITORI\AA2_PRACTICA\CODE\INCLUDE\IMGUI\IMGUI_DEMO.CPP
^C:\USERS\SERGI\DESKTOP\ENTI\2º QUATRI\INFORMATICA GRAFICA\5.PRACTICA2 REPOSITORI\AA2_PRACTICA\CODE\INCLUDE\IMGUI\IMGUI_DRAW.CPP
/c /I.\INCLUDE /I.\INCLUDE\SDL2 /ZI /nologo /W3 /WX- /diagnostics:classic /sdl /Od /D _MBCS /Gm /EHsc /RTC1 /MDd /GS /fp:precise /Zc:wchar_t /Zc:forScope /Zc:inline /Fo"C:\USERS\SERGI\DESKTOP\ENTI\2º QUATRI\INFORMATICA GRAFICA\5.PRACTICA2 REPOSITORI\AA2_PRACTICA\X64\DEBUG\INT\\" /Fd"C:\USERS\SERGI\DESKTOP\ENTI\2º QUATRI\INFORMATICA GRAFICA\5.PRACTICA2 REPOSITORI\AA2_PRACTICA\X64\DEBUG\INT\VC141.PDB" /Gd /TP C:\USERS\SERGI\DESKTOP\ENTI\2º QUATRI\INFORMATICA GRAFICA\5.PRACTICA2 REPOSITORI\AA2_PRACTICA\CODE\INCLUDE\IMGUI\IMGUI_DRAW.CPP
^C:\USERS\SERGI\DESKTOP\ENTI\2º QUATRI\INFORMATICA GRAFICA\5.PRACTICA2 REPOSITORI\AA2_PRACTICA\CODE\INCLUDE\IMGUI\IMGUI_IMPL_SDL_GL3.CPP
/c /I.\INCLUDE /I.\INCLUDE\SDL2 /ZI /nologo /W3 /WX- /diagnostics:classic /sdl /Od /D _MBCS /Gm /EHsc /RTC1 /MDd /GS /fp:precise /Zc:wchar_t /Zc:forScope /Zc:inline /Fo"C:\USERS\SERGI\DESKTOP\ENTI\2º QUATRI\INFORMATICA GRAFICA\5.PRACTICA2 REPOSITORI\AA2_PRACTICA\X64\DEBUG\INT\\" /Fd"C:\USERS\SERGI\DESKTOP\ENTI\2º QUATRI\INFORMATICA GRAFICA\5.PRACTICA2 REPOSITORI\AA2_PRACTICA\X64\DEBUG\INT\VC141.PDB" /Gd /TP C:\USERS\SERGI\DESKTOP\ENTI\2º QUATRI\INFORMATICA GRAFICA\5.PRACTICA2 REPOSITORI\AA2_PRACTICA\CODE\INCLUDE\IMGUI\IMGUI_IMPL_SDL_GL3.CPP
^C:\USERS\SERGI\DESKTOP\ENTI\2º QUATRI\INFORMATICA GRAFICA\5.PRACTICA2 REPOSITORI\AA2_PRACTICA\CODE\MY_RENDER_CODE.CPP
/c /I.\INCLUDE /I.\INCLUDE\SDL2 /ZI /nologo /W3 /WX- /diagnostics:classic /sdl /Od /D _MBCS /Gm /EHsc /RTC1 /MDd /GS /fp:precise /Zc:wchar_t /Zc:forScope /Zc:inline /Fo"C:\USERS\SERGI\DESKTOP\ENTI\2º QUATRI\INFORMATICA GRAFICA\5.PRACTICA2 REPOSITORI\AA2_PRACTICA\X64\DEBUG\INT\\" /Fd"C:\USERS\SERGI\DESKTOP\ENTI\2º QUATRI\INFORMATICA GRAFICA\5.PRACTICA2 REPOSITORI\AA2_PRACTICA\X64\DEBUG\INT\VC141.PDB" /Gd /TP C:\USERS\SERGI\DESKTOP\ENTI\2º QUATRI\INFORMATICA GRAFICA\5.PRACTICA2 REPOSITORI\AA2_PRACTICA\CODE\MY_RENDER_CODE.CPP
^C:\USERS\SERGI\DESKTOP\ENTI\2º QUATRI\INFORMATICA GRAFICA\5.PRACTICA2 REPOSITORI\AA2_PRACTICA\CODE\SRC\MAIN.CPP
/c /I.\INCLUDE /I.\INCLUDE\SDL2 /ZI /nologo /W3 /WX- /diagnostics:classic /sdl /Od /D _MBCS /Gm /EHsc /RTC1 /MDd /GS /fp:precise /Zc:wchar_t /Zc:forScope /Zc:inline /Fo"C:\USERS\SERGI\DESKTOP\ENTI\2º QUATRI\INFORMATICA GRAFICA\5.PRACTICA2 REPOSITORI\AA2_PRACTICA\X64\DEBUG\INT\\" /Fd"C:\USERS\SERGI\DESKTOP\ENTI\2º QUATRI\INFORMATICA GRAFICA\5.PRACTICA2 REPOSITORI\AA2_PRACTICA\X64\DEBUG\INT\VC141.PDB" /Gd /TP C:\USERS\SERGI\DESKTOP\ENTI\2º QUATRI\INFORMATICA GRAFICA\5.PRACTICA2 REPOSITORI\AA2_PRACTICA\CODE\SRC\MAIN.CPP
^C:\USERS\SERGI\DESKTOP\ENTI\2º QUATRI\INFORMATICA GRAFICA\5.PRACTICA2 REPOSITORI\AA2_PRACTICA\CODE\SRC\PHYSICS.CPP
/c /I.\INCLUDE /I.\INCLUDE\SDL2 /ZI /nologo /W3 /WX- /diagnostics:classic /sdl /Od /D _MBCS /Gm /EHsc /RTC1 /MDd /GS /fp:precise /Zc:wchar_t /Zc:forScope /Zc:inline /Fo"C:\USERS\SERGI\DESKTOP\ENTI\2º QUATRI\INFORMATICA GRAFICA\5.PRACTICA2 REPOSITORI\AA2_PRACTICA\X64\DEBUG\INT\\" /Fd"C:\USERS\SERGI\DESKTOP\ENTI\2º QUATRI\INFORMATICA GRAFICA\5.PRACTICA2 REPOSITORI\AA2_PRACTICA\X64\DEBUG\INT\VC141.PDB" /Gd /TP C:\USERS\SERGI\DESKTOP\ENTI\2º QUATRI\INFORMATICA GRAFICA\5.PRACTICA2 REPOSITORI\AA2_PRACTICA\CODE\SRC\PHYSICS.CPP
^C:\USERS\SERGI\DESKTOP\ENTI\2º QUATRI\INFORMATICA GRAFICA\5.PRACTICA2 REPOSITORI\AA2_PRACTICA\CODE\SRC\RENDER.CPP
/c /I.\INCLUDE /I.\INCLUDE\SDL2 /ZI /nologo /W3 /WX- /diagnostics:classic /sdl /Od /D _MBCS /Gm /EHsc /RTC1 /MDd /GS /fp:precise /Zc:wchar_t /Zc:forScope /Zc:inline /Fo"C:\USERS\SERGI\DESKTOP\ENTI\2º QUATRI\INFORMATICA GRAFICA\5.PRACTICA2 REPOSITORI\AA2_PRACTICA\X64\DEBUG\INT\\" /Fd"C:\USERS\SERGI\DESKTOP\ENTI\2º QUATRI\INFORMATICA GRAFICA\5.PRACTICA2 REPOSITORI\AA2_PRACTICA\X64\DEBUG\INT\VC141.PDB" /Gd /TP C:\USERS\SERGI\DESKTOP\ENTI\2º QUATRI\INFORMATICA GRAFICA\5.PRACTICA2 REPOSITORI\AA2_PRACTICA\CODE\SRC\RENDER.CPP
^C:\USERS\SERGI\DESKTOP\ENTI\2º QUATRI\INFORMATICA GRAFICA\5.PRACTICA2 REPOSITORI\AA2_PRACTICA\CODE\SRC\RENDER_PRIMS.CPP
/c /I.\INCLUDE /I.\INCLUDE\SDL2 /ZI /nologo /W3 /WX- /diagnostics:classic /sdl /Od /D _MBCS /Gm /EHsc /RTC1 /MDd /GS /fp:precise /Zc:wchar_t /Zc:forScope /Zc:inline /Fo"C:\USERS\SERGI\DESKTOP\ENTI\2º QUATRI\INFORMATICA GRAFICA\5.PRACTICA2 REPOSITORI\AA2_PRACTICA\X64\DEBUG\INT\\" /Fd"C:\USERS\SERGI\DESKTOP\ENTI\2º QUATRI\INFORMATICA GRAFICA\5.PRACTICA2 REPOSITORI\AA2_PRACTICA\X64\DEBUG\INT\VC141.PDB" /Gd /TP C:\USERS\SERGI\DESKTOP\ENTI\2º QUATRI\INFORMATICA GRAFICA\5.PRACTICA2 REPOSITORI\AA2_PRACTICA\CODE\SRC\RENDER_PRIMS.CPP
^C:\USERS\SERGI\DESKTOP\ENTI\2º QUATRI\INFORMATICA GRAFICA\PRACTICAS\AA2_LOCURA\CODE\INCLUDE\IMGUI\IMGUI.CPP
/c /I.\INCLUDE /I.\INCLUDE\SDL2 /ZI /nologo /W3 /WX- /diagnostics:classic /sdl /Od /D _MBCS /Gm /EHsc /RTC1 /MDd /GS /fp:precise /Zc:wchar_t /Zc:forScope /Zc:inline /Fo"C:\USERS\SERGI\DESKTOP\ENTI\2º QUATRI\INFORMATICA GRAFICA\PRACTICAS\AA2_LOCURA\X64\DEBUG\INT\\" /Fd"C:\USERS\SERGI\DESKTOP\ENTI\2º QUATRI\INFORMATICA GRAFICA\PRACTICAS\AA2_LOCURA\X64\DEBUG\INT\VC141.PDB" /Gd /TP C:\USERS\SERGI\DESKTOP\ENTI\2º QUATRI\INFORMATICA GRAFICA\PRACTICAS\AA2_LOCURA\CODE\INCLUDE\IMGUI\IMGUI.CPP
^C:\USERS\SERGI\DESKTOP\ENTI\2º QUATRI\INFORMATICA GRAFICA\PRACTICAS\AA2_LOCURA\CODE\INCLUDE\IMGUI\IMGUI_DEMO.CPP
/c /I.\INCLUDE /I.\INCLUDE\SDL2 /ZI /nologo /W3 /WX- /diagnostics:classic /sdl /Od /D _MBCS /Gm /EHsc /RTC1 /MDd /GS /fp:precise /Zc:wchar_t /Zc:forScope /Zc:inline /Fo"C:\USERS\SERGI\DESKTOP\ENTI\2º QUATRI\INFORMATICA GRAFICA\PRACTICAS\AA2_LOCURA\X64\DEBUG\INT\\" /Fd"C:\USERS\SERGI\DESKTOP\ENTI\2º QUATRI\INFORMATICA GRAFICA\PRACTICAS\AA2_LOCURA\X64\DEBUG\INT\VC141.PDB" /Gd /TP C:\USERS\SERGI\DESKTOP\ENTI\2º QUATRI\INFORMATICA GRAFICA\PRACTICAS\AA2_LOCURA\CODE\INCLUDE\IMGUI\IMGUI_DEMO.CPP
^C:\USERS\SERGI\DESKTOP\ENTI\2º QUATRI\INFORMATICA GRAFICA\PRACTICAS\AA2_LOCURA\CODE\INCLUDE\IMGUI\IMGUI_DRAW.CPP
/c /I.\INCLUDE /I.\INCLUDE\SDL2 /ZI /nologo /W3 /WX- /diagnostics:classic /sdl /Od /D _MBCS /Gm /EHsc /RTC1 /MDd /GS /fp:precise /Zc:wchar_t /Zc:forScope /Zc:inline /Fo"C:\USERS\SERGI\DESKTOP\ENTI\2º QUATRI\INFORMATICA GRAFICA\PRACTICAS\AA2_LOCURA\X64\DEBUG\INT\\" /Fd"C:\USERS\SERGI\DESKTOP\ENTI\2º QUATRI\INFORMATICA GRAFICA\PRACTICAS\AA2_LOCURA\X64\DEBUG\INT\VC141.PDB" /Gd /TP C:\USERS\SERGI\DESKTOP\ENTI\2º QUATRI\INFORMATICA GRAFICA\PRACTICAS\AA2_LOCURA\CODE\INCLUDE\IMGUI\IMGUI_DRAW.CPP
^C:\USERS\SERGI\DESKTOP\ENTI\2º QUATRI\INFORMATICA GRAFICA\PRACTICAS\AA2_LOCURA\CODE\INCLUDE\IMGUI\IMGUI_IMPL_SDL_GL3.CPP
/c /I.\INCLUDE /I.\INCLUDE\SDL2 /ZI /nologo /W3 /WX- /diagnostics:classic /sdl /Od /D _MBCS /Gm /EHsc /RTC1 /MDd /GS /fp:precise /Zc:wchar_t /Zc:forScope /Zc:inline /Fo"C:\USERS\SERGI\DESKTOP\ENTI\2º QUATRI\INFORMATICA GRAFICA\PRACTICAS\AA2_LOCURA\X64\DEBUG\INT\\" /Fd"C:\USERS\SERGI\DESKTOP\ENTI\2º QUATRI\INFORMATICA GRAFICA\PRACTICAS\AA2_LOCURA\X64\DEBUG\INT\VC141.PDB" /Gd /TP C:\USERS\SERGI\DESKTOP\ENTI\2º QUATRI\INFORMATICA GRAFICA\PRACTICAS\AA2_LOCURA\CODE\INCLUDE\IMGUI\IMGUI_IMPL_SDL_GL3.CPP
^C:\USERS\SERGI\DESKTOP\ENTI\2º QUATRI\INFORMATICA GRAFICA\PRACTICAS\AA2_LOCURA\CODE\MY_RENDER_CODE.CPP
/c /I.\INCLUDE /I.\INCLUDE\SDL2 /ZI /nologo /W3 /WX- /diagnostics:classic /sdl /Od /D _MBCS /Gm /EHsc /RTC1 /MDd /GS /fp:precise /Zc:wchar_t /Zc:forScope /Zc:inline /Fo"C:\USERS\SERGI\DESKTOP\ENTI\2º QUATRI\INFORMATICA GRAFICA\PRACTICAS\AA2_LOCURA\X64\DEBUG\INT\\" /Fd"C:\USERS\SERGI\DESKTOP\ENTI\2º QUATRI\INFORMATICA GRAFICA\PRACTICAS\AA2_LOCURA\X64\DEBUG\INT\VC141.PDB" /Gd /TP C:\USERS\SERGI\DESKTOP\ENTI\2º QUATRI\INFORMATICA GRAFICA\PRACTICAS\AA2_LOCURA\CODE\MY_RENDER_CODE.CPP
^C:\USERS\SERGI\DESKTOP\ENTI\2º QUATRI\INFORMATICA GRAFICA\PRACTICAS\AA2_LOCURA\CODE\SRC\MAIN.CPP
/c /I.\INCLUDE /I.\INCLUDE\SDL2 /ZI /nologo /W3 /WX- /diagnostics:classic /sdl /Od /D _MBCS /Gm /EHsc /RTC1 /MDd /GS /fp:precise /Zc:wchar_t /Zc:forScope /Zc:inline /Fo"C:\USERS\SERGI\DESKTOP\ENTI\2º QUATRI\INFORMATICA GRAFICA\PRACTICAS\AA2_LOCURA\X64\DEBUG\INT\\" /Fd"C:\USERS\SERGI\DESKTOP\ENTI\2º QUATRI\INFORMATICA GRAFICA\PRACTICAS\AA2_LOCURA\X64\DEBUG\INT\VC141.PDB" /Gd /TP C:\USERS\SERGI\DESKTOP\ENTI\2º QUATRI\INFORMATICA GRAFICA\PRACTICAS\AA2_LOCURA\CODE\SRC\MAIN.CPP
^C:\USERS\SERGI\DESKTOP\ENTI\2º QUATRI\INFORMATICA GRAFICA\PRACTICAS\AA2_LOCURA\CODE\SRC\PHYSICS.CPP
/c /I.\INCLUDE /I.\INCLUDE\SDL2 /ZI /nologo /W3 /WX- /diagnostics:classic /sdl /Od /D _MBCS /Gm /EHsc /RTC1 /MDd /GS /fp:precise /Zc:wchar_t /Zc:forScope /Zc:inline /Fo"C:\USERS\SERGI\DESKTOP\ENTI\2º QUATRI\INFORMATICA GRAFICA\PRACTICAS\AA2_LOCURA\X64\DEBUG\INT\\" /Fd"C:\USERS\SERGI\DESKTOP\ENTI\2º QUATRI\INFORMATICA GRAFICA\PRACTICAS\AA2_LOCURA\X64\DEBUG\INT\VC141.PDB" /Gd /TP C:\USERS\SERGI\DESKTOP\ENTI\2º QUATRI\INFORMATICA GRAFICA\PRACTICAS\AA2_LOCURA\CODE\SRC\PHYSICS.CPP
^C:\USERS\SERGI\DESKTOP\ENTI\2º QUATRI\INFORMATICA GRAFICA\PRACTICAS\AA2_LOCURA\CODE\SRC\RENDER.CPP
/c /I.\INCLUDE /I.\INCLUDE\SDL2 /ZI /nologo /W3 /WX- /diagnostics:classic /sdl /Od /D _MBCS /Gm /EHsc /RTC1 /MDd /GS /fp:precise /Zc:wchar_t /Zc:forScope /Zc:inline /Fo"C:\USERS\SERGI\DESKTOP\ENTI\2º QUATRI\INFORMATICA GRAFICA\PRACTICAS\AA2_LOCURA\X64\DEBUG\INT\\" /Fd"C:\USERS\SERGI\DESKTOP\ENTI\2º QUATRI\INFORMATICA GRAFICA\PRACTICAS\AA2_LOCURA\X64\DEBUG\INT\VC141.PDB" /Gd /TP C:\USERS\SERGI\DESKTOP\ENTI\2º QUATRI\INFORMATICA GRAFICA\PRACTICAS\AA2_LOCURA\CODE\SRC\RENDER.CPP
^C:\USERS\SERGI\DESKTOP\ENTI\2º QUATRI\INFORMATICA GRAFICA\PRACTICAS\AA2_LOCURA\CODE\SRC\RENDER_PRIMS.CPP
/c /I.\INCLUDE /I.\INCLUDE\SDL2 /ZI /nologo /W3 /WX- /diagnostics:classic /sdl /Od /D _MBCS /Gm /EHsc /RTC1 /MDd /GS /fp:precise /Zc:wchar_t /Zc:forScope /Zc:inline /Fo"C:\USERS\SERGI\DESKTOP\ENTI\2º QUATRI\INFORMATICA GRAFICA\PRACTICAS\AA2_LOCURA\X64\DEBUG\INT\\" /Fd"C:\USERS\SERGI\DESKTOP\ENTI\2º QUATRI\INFORMATICA GRAFICA\PRACTICAS\AA2_LOCURA\X64\DEBUG\INT\VC141.PDB" /Gd /TP C:\USERS\SERGI\DESKTOP\ENTI\2º QUATRI\INFORMATICA GRAFICA\PRACTICAS\AA2_LOCURA\CODE\SRC\RENDER_PRIMS.CPP
