^C:\USERS\SERGI\DESKTOP\ENTI\2º QUATRI\INFORMATICA GRAFICA\5.PRACTICA2 REPOSITORI\AA2_PRACTICA\X64\DEBUG\INT\IMGUI.OBJ|C:\USERS\SERGI\DESKTOP\ENTI\2º QUATRI\INFORMATICA GRAFICA\5.PRACTICA2 REPOSITORI\AA2_PRACTICA\X64\DEBUG\INT\IMGUI_DEMO.OBJ|C:\USERS\SERGI\DESKTOP\ENTI\2º QUATRI\INFORMATICA GRAFICA\5.PRACTICA2 REPOSITORI\AA2_PRACTICA\X64\DEBUG\INT\IMGUI_DRAW.OBJ|C:\USERS\SERGI\DESKTOP\ENTI\2º QUATRI\INFORMATICA GRAFICA\5.PRACTICA2 REPOSITORI\AA2_PRACTICA\X64\DEBUG\INT\IMGUI_IMPL_SDL_GL3.OBJ|C:\USERS\SERGI\DESKTOP\ENTI\2º QUATRI\INFORMATICA GRAFICA\5.PRACTICA2 REPOSITORI\AA2_PRACTICA\X64\DEBUG\INT\MAIN.OBJ|C:\USERS\SERGI\DESKTOP\ENTI\2º QUATRI\INFORMATICA GRAFICA\5.PRACTICA2 REPOSITORI\AA2_PRACTICA\X64\DEBUG\INT\MY_RENDER_CODE.OBJ|C:\USERS\SERGI\DESKTOP\ENTI\2º QUATRI\INFORMATICA GRAFICA\5.PRACTICA2 REPOSITORI\AA2_PRACTICA\X64\DEBUG\INT\PHYSICS.OBJ|C:\USERS\SERGI\DESKTOP\ENTI\2º QUATRI\INFORMATICA GRAFICA\5.PRACTICA2 REPOSITORI\AA2_PRACTICA\X64\DEBUG\INT\RENDER.OBJ|C:\USERS\SERGI\DESKTOP\ENTI\2º QUATRI\INFORMATICA GRAFICA\5.PRACTICA2 REPOSITORI\AA2_PRACTICA\X64\DEBUG\INT\RENDER_PRIMS.OBJ
C:\USERS\SERGI\DESKTOP\ENTI\2º QUATRI\INFORMATICA GRAFICA\5.PRACTICA2 REPOSITORI\AA2_PRACTICA\X64\DEBUG\GL_FRAMEWORK.EXE
C:\USERS\SERGI\DESKTOP\ENTI\2º QUATRI\INFORMATICA GRAFICA\5.PRACTICA2 REPOSITORI\AA2_PRACTICA\X64\DEBUG\GL_FRAMEWORK.ILK
C:\USERS\SERGI\DESKTOP\ENTI\2º QUATRI\INFORMATICA GRAFICA\5.PRACTICA2 REPOSITORI\AA2_PRACTICA\X64\DEBUG\GL_FRAMEWORK.PDB
^C:\USERS\SERGI\DESKTOP\ENTI\2º QUATRI\INFORMATICA GRAFICA\PRACTICAS\AA2_PRACTICA\X64\DEBUG\INT\IMGUI.OBJ|C:\USERS\SERGI\DESKTOP\ENTI\2º QUATRI\INFORMATICA GRAFICA\PRACTICAS\AA2_PRACTICA\X64\DEBUG\INT\IMGUI_DEMO.OBJ|C:\USERS\SERGI\DESKTOP\ENTI\2º QUATRI\INFORMATICA GRAFICA\PRACTICAS\AA2_PRACTICA\X64\DEBUG\INT\IMGUI_DRAW.OBJ|C:\USERS\SERGI\DESKTOP\ENTI\2º QUATRI\INFORMATICA GRAFICA\PRACTICAS\AA2_PRACTICA\X64\DEBUG\INT\IMGUI_IMPL_SDL_GL3.OBJ|C:\USERS\SERGI\DESKTOP\ENTI\2º QUATRI\INFORMATICA GRAFICA\PRACTICAS\AA2_PRACTICA\X64\DEBUG\INT\MAIN.OBJ|C:\USERS\SERGI\DESKTOP\ENTI\2º QUATRI\INFORMATICA GRAFICA\PRACTICAS\AA2_PRACTICA\X64\DEBUG\INT\MY_RENDER_CODE.OBJ|C:\USERS\SERGI\DESKTOP\ENTI\2º QUATRI\INFORMATICA GRAFICA\PRACTICAS\AA2_PRACTICA\X64\DEBUG\INT\PHYSICS.OBJ|C:\USERS\SERGI\DESKTOP\ENTI\2º QUATRI\INFORMATICA GRAFICA\PRACTICAS\AA2_PRACTICA\X64\DEBUG\INT\RENDER.OBJ|C:\USERS\SERGI\DESKTOP\ENTI\2º QUATRI\INFORMATICA GRAFICA\PRACTICAS\AA2_PRACTICA\X64\DEBUG\INT\RENDER_PRIMS.OBJ
C:\USERS\SERGI\DESKTOP\ENTI\2º QUATRI\INFORMATICA GRAFICA\PRACTICAS\AA2_PRACTICA\X64\DEBUG\GL_FRAMEWORK.EXE
C:\USERS\SERGI\DESKTOP\ENTI\2º QUATRI\INFORMATICA GRAFICA\PRACTICAS\AA2_PRACTICA\X64\DEBUG\GL_FRAMEWORK.ILK
C:\USERS\SERGI\DESKTOP\ENTI\2º QUATRI\INFORMATICA GRAFICA\PRACTICAS\AA2_PRACTICA\X64\DEBUG\GL_FRAMEWORK.PDB
^C:\USERS\SERGI\DESKTOP\ENTI\2º QUATRI\INFORMATICA GRAFICA\PRACTICAS\AA2_LOCURA\X64\DEBUG\INT\IMGUI.OBJ|C:\USERS\SERGI\DESKTOP\ENTI\2º QUATRI\INFORMATICA GRAFICA\PRACTICAS\AA2_LOCURA\X64\DEBUG\INT\IMGUI_DEMO.OBJ|C:\USERS\SERGI\DESKTOP\ENTI\2º QUATRI\INFORMATICA GRAFICA\PRACTICAS\AA2_LOCURA\X64\DEBUG\INT\IMGUI_DRAW.OBJ|C:\USERS\SERGI\DESKTOP\ENTI\2º QUATRI\INFORMATICA GRAFICA\PRACTICAS\AA2_LOCURA\X64\DEBUG\INT\IMGUI_IMPL_SDL_GL3.OBJ|C:\USERS\SERGI\DESKTOP\ENTI\2º QUATRI\INFORMATICA GRAFICA\PRACTICAS\AA2_LOCURA\X64\DEBUG\INT\MAIN.OBJ|C:\USERS\SERGI\DESKTOP\ENTI\2º QUATRI\INFORMATICA GRAFICA\PRACTICAS\AA2_LOCURA\X64\DEBUG\INT\MY_RENDER_CODE.OBJ|C:\USERS\SERGI\DESKTOP\ENTI\2º QUATRI\INFORMATICA GRAFICA\PRACTICAS\AA2_LOCURA\X64\DEBUG\INT\PHYSICS.OBJ|C:\USERS\SERGI\DESKTOP\ENTI\2º QUATRI\INFORMATICA GRAFICA\PRACTICAS\AA2_LOCURA\X64\DEBUG\INT\RENDER.OBJ|C:\USERS\SERGI\DESKTOP\ENTI\2º QUATRI\INFORMATICA GRAFICA\PRACTICAS\AA2_LOCURA\X64\DEBUG\INT\RENDER_PRIMS.OBJ
C:\USERS\SERGI\DESKTOP\ENTI\2º QUATRI\INFORMATICA GRAFICA\PRACTICAS\AA2_LOCURA\X64\DEBUG\GL_FRAMEWORK.EXE
C:\USERS\SERGI\DESKTOP\ENTI\2º QUATRI\INFORMATICA GRAFICA\PRACTICAS\AA2_LOCURA\X64\DEBUG\GL_FRAMEWORK.ILK
C:\USERS\SERGI\DESKTOP\ENTI\2º QUATRI\INFORMATICA GRAFICA\PRACTICAS\AA2_LOCURA\X64\DEBUG\GL_FRAMEWORK.PDB
